Capítulo 2 Análisis Exploratorio de Datos | Estadística I: Análisis exploratorio de datos y muestreo
…
O bien si se desean contar en la base de datos por ejemplo los delitos de ABANDONO DE PERSONA pueden hacerse mediante un filtro.

datos %>% filter(delito == "ABANDONO DE PERSONA") %>% tally()

##    n
## 1 53

Al filtro pueden agregárseles grupos por si se desea obtener por fecha:

datos %>% filter(delito == "ABANDONO DE PERSONA") %>% 
  group_by(fecha) %>%  tally()

## # A tibble: 21 x 2
##    fecha          n
##    <date>     <int>
##  1 2018-12-01     3
##  2 2018-12-02     3
##  3 2018-12-04     2
##  4 2018-12-05     8
##  5 2018-12-06     1
##  6 2018-12-07     1
##  7 2018-12-10     1
##  8 2018-12-12     2
##  9 2018-12-13     3
## 10 2018-12-14     2
## # … with 11 more rows

El filtro funciona igual que un if pudiéndose usar  (&) u  (|):

datos %>% 
  filter(delito == "ABANDONO DE PERSONA" |  delito == "ABORTO") %>% 
  group_by(fecha) %>%  tally()

## # A tibble: 25 x 2
##    fecha          n
##    <date>     <int>
##  1 2018-12-01     3
##  2 2018-12-02     3
##  3 2018-12-04     5
##  4 2018-12-05     8
##  5 2018-12-06     1
##  6 2018-12-07     2
##  7 2018-12-10     1
##  8 2018-12-12     2
##  9 2018-12-13     4
## 10 2018-12-14     2
## # … with 15 more rows
…
